{"componentChunkName":"component---src-templates-posts-tsx","path":"/posts","result":{"data":{"site":{"siteMetadata":{"title":"Wizard's Lair"}},"allMdx":{"pageInfo":{"currentPage":1,"hasNextPage":true,"hasPreviousPage":false,"itemCount":10,"pageCount":5,"perPage":10,"totalCount":48},"nodes":[{"excerpt":"NAND Gate 又叫与非门，可以理解为与门和非门的组合，用逻辑表达式为： NAND as NOT NOT 是一个单输入的逻辑门，用逻辑表达式为：  。 因为   所以  NAND as AND AND Gate…","frontmatter":{"description":"最近在看 Nand2Tetris 的课程，这里简单记录下如何用与非门实现其他逻辑门，也就是标题 NAND as Universal Gate。A universal gate is a gate which can implement any Boolean function without need to use any other gate type.","date":"May 18, 2022","title":"NAND as Universal Gate"},"id":"3de07a61-2d10-5fa3-ac84-0e3252bc15c2","fields":{"slug":"/NAND-as-Universal-Gate/"}},{"excerpt":"年初把博客更新了成用  gatsby-plugin-mdx  处理  mdx 文件 来生成页面。在更新前，解析 Markdown 文件中的   公式使用的是  gatsby-remark-katex  插件，这个插件和  gatsby-transformer-remark…","frontmatter":{"description":"在 Gatsby 中使用 MDX 提供了极强的扩展性，但是如果使用 gatsby-plugin-mdx 的话 gatsby-remark-katex 插件就无法使用了，那如何在 MDX 中处理 LaTeX 内容呢？本文将做简要说明。","date":"May 12, 2022","title":"在 Gatsby MDX 中使用 LaTeX"},"id":"c3656c11-66b8-59f4-a69a-c33880478b6d","fields":{"slug":"/在-Gatsby-MDX-中使用-LaTeX/"}},{"excerpt":"适用场景 全局事件总线（Global Event Bus）一般用于远距离（非父子）组件之间的数据通信，是 Vue 中全局状态管理方案的一种。 下图中的组件 B 和 组件 D 之间进行通信，则可以通过 Global Event Bus 来实现。 基本原理 全局事件总线（Global…","frontmatter":{"description":"全局事件总线（Global Event Bus）一般用于远距离（非父子）组件之间的数据通信，是 Vue 中全局状态管理方案的一种。","date":"March 12, 2022","title":"Vue2 中的 Global Event Bus"},"id":"dcb2b1df-e20f-56ed-9203-e7a25e1c72b8","fields":{"slug":"/Vue中的Global-Event-Bus/"}},{"excerpt":"一般家庭用网需求都会比较简单，只要能够有 IPTV 看，有能上网的 WIFI 可连足矣。而对于吾等乐于折腾之人，则会有一些额外的需求产生，如翻墙、NAS、尽可能高的带宽以及尽可能低的延迟等等。 首先对家里的基础设施做一个简单介绍，没有特别奢侈，所以用的是电信的 500M…","frontmatter":{"description":"之前由于各种问题，导致家里的网络用着各种不得劲，所以周末把家里的网络环境简单的折腾了一下，这里写篇博客做个简单的记录","date":"November 29, 2021","title":"家庭布网实录"},"id":"5393b20f-9c89-5b92-9eef-9f8013fbc577","fields":{"slug":"/家庭布网实录/"}},{"excerpt":"早上起床发现 VPS 突然无法访问了，后来在 TG…","frontmatter":{"description":"authorized_keys 配置之后，依然无法实现免密登录，让人摸不着头脑。","date":"July 17, 2021","title":"AuthorziedKey配置小记"},"id":"700b447f-601f-537b-81c8-6b3822284133","fields":{"slug":"/AuthorziedKey配置小记/"}},{"excerpt":"起因 2021年1月23日 pip 更新的21.x的版本停止了对 python2 的支持，这导致新入手 Mac 的朋友安装 pip 变成一件及其困难的事情。 看本文的时候不要着急，别看见命令就执行，看完再说。 正确的姿势 错误的尝试 当你在尝试在 Big Sur 上安装 pip…","frontmatter":{"description":"2021年1月23日 pip 更新的21.x的版本停止了对 python2 的支持，这导致新入手 Mac 的朋友安装 pip 变成一件及其困难的事情。","date":"June 17, 2021","title":"2021年如何在OSX上安装PIP2"},"id":"03489dad-4d26-5c55-b53d-bfdbcfa36d27","fields":{"slug":"/2021年如何在OSX上安装PIP2/"}},{"excerpt":"安装 由于我自己使用的是 OSX，所以这里我只介绍 OSX 中的安装方式。 OSX 中的软件管理神器  HomeBrew  大家肯定不陌生，陌生的话就熟悉一下 如果感兴趣的话，还可以了解一下  Oh-My-Fish 。 设置 fish 为默认 Shell 由于 fish…","frontmatter":{"description":"Fish 是\"the friendly interactive shell\"的简称，以方便易用著称，相较于其他 Shell, Fish 基本可以做到零配置可用。","date":"June 10, 2021","title":"fish 使用笔记"},"id":"c7b2dc4f-f39e-57fd-98e6-a8c22bcd6391","fields":{"slug":"/Fish使用笔记/"}},{"excerpt":"Cron 简介 Cron  是类 Unix 系统中用于执行定时任务的工具，我们可以通过  cron  在固定时间、日期、间隔下，运行定期任务（可以是命令和脚本）。 cron  最常使用的是服务器运维和管理方向，当然也可用于其他地方，如：定期下载文件等。 The origin of…","frontmatter":{"description":"Cron 是类 Unix 系统中用于执行定时任务的工具，我们可以通过 Cron 在固定时间、日期、间隔下，运行定期任务（可以是命令和脚本）。Cron 最常使用的是服务器运维和管理方向，当然也可用于其他地方，如：定期下载文件等。","date":"April 29, 2021","title":"定时任务 cron 使用说明"},"id":"a43b1ada-ed45-53c6-a9a9-26110daeec35","fields":{"slug":"/定时任务CRON使用说明/"}},{"excerpt":"本站使用的是 Gatsby.js，其中使用了 Prismjs 的代码高亮，这里对支持的语言做一个简单的记录，以备查询。","frontmatter":{"description":"本站使用的是 Gatsby.js，其中使用了 Prismjs 的代码高亮，这里对支持的语言做一个简单的记录，以备查询。","date":"April 14, 2021","title":"Prismjs 代码高亮支持语言列表"},"id":"99fad609-cd31-54f9-827a-7e7494a0c96e","fields":{"slug":"/Prismjs-Highlight-Supported-Language-List/"}},{"excerpt":"这个博客站是我自己用 Gatsby 随便拼凑了一下造出来的，前几天发现好久都没有更新博客了，心里还是很愧疚的 🤣，那就更新一篇吧。 之前用 Gatsby 写博客要么是在 OS 系统下，要么是在 Linux 系统下，从来没用过 Windows…","frontmatter":{"description":"借助 GitHub Actions，可以直接从 GitHub 构建、测试和部署代码，轻松实现所有软件工作流程的自动化。","date":"April 12, 2021","title":"GitHub Actions 入门"},"id":"398d7a9f-3f7b-5b30-b2ba-74b003b851bc","fields":{"slug":"/GithubActions入门/"}}]}},"pageContext":{"limit":10,"skip":0,"numPages":5,"currentPage":1}},"staticQueryHashes":["2786614800","3000541721","3828236571"]}