{"componentChunkName":"component---src-templates-posts-tsx","path":"/posts/3","result":{"data":{"site":{"siteMetadata":{"title":"Wizard's Lair"}},"allMdx":{"pageInfo":{"currentPage":3,"hasNextPage":true,"hasPreviousPage":true,"itemCount":10,"pageCount":5,"perPage":10,"totalCount":48},"nodes":[{"excerpt":"\n\"Hooks 到底是个啥玩意儿？？？\" 你是不是有这样的疑惑？在你自认为已经了解了差不多 React 所有的内容的时候，Hooks…","frontmatter":{"description":"Hooks 到底是个啥玩意儿？？？","date":"November 27, 2019","title":"给新手看的 React Hooks 教程"},"id":"7d8c206c-6bfb-5e6f-89ec-2d93dc1d5c80","fields":{"slug":"/给新手看的React-Hooks教程/"}},{"excerpt":"构造函数中调用的  this._init  是在哪里定义的呢？正如我们所看到的，构造函数内部并未对这个  ._init  方法进行定义。\n快速进行全局搜索源码可以发现  ._init  方法是在名为  initMixin  的函数中添加到  Vue.prototype…","frontmatter":{"description":"本系列文章详细介绍了Vue.js源代码，对其中的JavaScript代码进行了详细的说明。 并且尝试将概念分解为JavaScript初学者可以理解的水平。","date":"August 02, 2019","title":"深入了解Vue.js源码(#2-initMixin-part1)"},"id":"1059cfb7-5448-5b43-ac49-35bb1bc4c163","fields":{"slug":"/深入了解Vue-js源码-2-initMixin/"}},{"excerpt":"","frontmatter":{"description":"本文旨在一步步的指引大家成为一个现代前端开发人员。路线图的目的是让大家对前端技能有宏观的了解，在大家对接下来要学习的内容感到困惑时提供方向，而不是鼓励大家选择时髦的东西，大家会逐渐理解为什么一种工具比另一种工具更适合某些情况，一定要记住，时髦从来都不是工作的关键。","date":"August 01, 2019","title":"前端技能路线图-2019"},"id":"89404eb1-aa51-5e9b-a27a-8a0a088dab33","fields":{"slug":"/前端技能路线图-2019/"}},{"excerpt":"题目 给定一个整数数组  nums  和一个目标值  target…","frontmatter":{"description":"给定一个整数数组 nums 和一个目标值 target，请你在该数组中找出和为目标值的那 两个 整数，并返回他们的数组下标。","date":"July 23, 2019","title":"LeetCode刷题系列-两数之和"},"id":"d71135e4-824a-5a61-b1eb-ffeb155fe78b","fields":{"slug":"/LeetCode刷题系列-两数之和/"}},{"excerpt":"本系列文章详细介绍了Vue.js源代码，对其中的JavaScript代码进行了详细的说明。 并且尝试将概念分解为JavaScript初学者可以理解的水平。 Vue 构造函数  Vue 实例是深入了解 Vue.js 源代码的最合适的切入点。 正如 Vue.js…","frontmatter":{"description":"本系列文章详细介绍了Vue.js源代码，对其中的JavaScript代码进行了详细的说明。 并且尝试将概念分解为JavaScript初学者可以理解的水平。","date":"May 07, 2019","title":"深入了解Vue.js源码(#1-Vue构造函数)"},"id":"4aa7d685-a4f8-5b8c-b4fe-fdca8b91094f","fields":{"slug":"/深入了解Vue-js源码-1/"}},{"excerpt":"CentOS中默认没有MySQL的 yum 源，直接使用 yum install mysql-community-server  会报错。 下面记录使用 yum 安装 MySQL 的详细步骤： 第一步：下载并安装 MySQL 源 yum-repo-mysql…","frontmatter":{"description":"CentOS中默认没有MySQL的yum源，直接使用yum install mysql-community-server会报错，本文介绍如何使用yum安装MySQL","date":"May 07, 2019","title":"CentOS使用yum安装MySQL"},"id":"12a4e7c0-313d-5eb1-a153-c75298aa85dc","fields":{"slug":"/CentOS使用yum安装MySQL/"}},{"excerpt":"一般公司都需要有自己的私有源代码托管服务，而SVN这种东西又不太好用，应该算是已经过时了吧（我自己瞎BB一下就好，求大家别打脸）。\nGitHub挺好用的，但是服务器再国外，而且创建私有库是需要软妹币的。\nGitLab也可以用来部署私有Git…","frontmatter":{"description":"简单的介绍一款极易搭建的自助 Git 服务: Gogs的安装和使用","date":"March 12, 2019","title":"CentOS部署Gogs-搭建私有Git服务器"},"id":"ddb911ab-f096-58cb-b371-b504fdabb3ad","fields":{"slug":"/CentOS部署Gogs-搭建私有Git服务器/"}},{"excerpt":"Kali 是 Offensive Security公司 开发的基于 Debian 的 Linux 发行版。它的目标就是为了简单：在一个实用的工具包里尽可能多的包含渗透和审计工具。Kali 实现了这个目标。大多数做安全测试的开源工具都被囊括在内。 Kali Linux…","frontmatter":{"description":"本文记录Kali Linux可用软件源汇总","date":"February 24, 2019","title":"Kali Linux可用软件源汇总"},"id":"19edda4c-a416-5e43-9c91-98fc691842a2","fields":{"slug":"/Kali Linux可用软件源汇总/"}},{"excerpt":"终端特殊字符实现清屏和颜色控制等操作 在使用node.js编写命令行工具的时候，想要写一个命令行的工具条，然后需要对当前行进行清除操作，在反复查阅资料后发现，在终端内进行清屏等操作可以利用向终端输出特殊字符来实现。 颜色控制 以node.js…","frontmatter":{"description":"在使用node.js编写命令行工具的时候，想要写一个命令行的工具条，然后需要对当前行进行清除操作，在反复查阅资料后发现，在终端内进行清屏等操作可以利用向终端输出特殊字符来实现。","date":"October 25, 2018","title":"终端特殊字符实现清屏和颜色控制等操作"},"id":"142cd930-0ebf-5cdd-ba5c-c7c4e73ac54f","fields":{"slug":"/终端特殊字符实现清屏和颜色控制等操作/"}},{"excerpt":"变量声明- let、const let ES6 新增了let命令，用来声明变量。它的用法类似于var，但是所声明的变量，只在let命令所在的代码块内有效。 let 特点： 1 块级作用域（ES6） 2 先声明再使用 3 不允许重复声明 const const…","frontmatter":{"description":"ES6的普及度越来越高，本文主要介绍ES6中最常见的内容及其使用方式。","date":"January 22, 2018","title":"ES6常用内容介绍"},"id":"831e211f-56bb-5caa-b3cb-594af81e491f","fields":{"slug":"/ES6常用内容介绍/"}}]}},"pageContext":{"limit":10,"skip":20,"numPages":5,"currentPage":3}},"staticQueryHashes":["2786614800","3000541721","3828236571"]}