{"componentChunkName":"component---src-templates-posts-tsx","path":"/posts/2","result":{"data":{"site":{"siteMetadata":{"title":"Wizard's Lair"}},"allMdx":{"pageInfo":{"currentPage":2,"hasNextPage":true,"hasPreviousPage":true,"itemCount":10,"pageCount":5,"perPage":10,"totalCount":48},"nodes":[{"excerpt":"HTTP 协议无状态的说明（马什么梅？什么冬梅？） HTTP 协议属于无状态协议，在客户端使用 HTTP…","frontmatter":{"description":null,"date":"March 29, 2021","title":"HTTP 会话机制及 JWT 深入浅出"},"id":"1a2e2a57-3e19-55ff-8b35-304b66860f81","fields":{"slug":"/HTTP会话机制及JWT原理浅析/"}},{"excerpt":"无头服务器（Headless Server），是指没有显示器、键盘、鼠标等其他外设的电脑。无头电脑一般是通过网络进行控制的。举个例子，你可以想象一下数据中心中放在服务器支架上提供 web 服务的刀片服务器，它们就是所谓的无头服务器。 \"Headless…","frontmatter":{"description":"无头服务器（Headless Server），是指没有显示器、键盘、鼠标等其他外设的电脑。","date":"November 10, 2020","title":"Headless Server 是个什么东西？"},"id":"48f1f9fb-a583-58a6-bd8e-17974fd63933","fields":{"slug":"/Headless-Server-是什么意思？/"}},{"excerpt":"Trojan 原理简介 最简单来讲， Trojan 是通过 HTTPS 的方式进行穿墙操作的， 也就是所有的请求， 先通过 Trojan 客户端加工之后， 以正常 HTTPS 请求的方式发往墙外服务器， 然后在 Trojan…","frontmatter":{"description":"Trojan 是目前比较便捷且可靠的扶墙工具， 但是其本身工作方式会导致在使用 Trojan 的同时， 多 HTTPS 域名部署会是一个小问题， 本文带你解决这个问题。","date":"August 13, 2020","title":"使用Trojan 的情况下多个 HTTPS 域名部署方案"},"id":"727f6140-06df-5f18-adb0-4dbc03183194","fields":{"slug":"/trojan-https-多域名部署方案/"}},{"excerpt":"原文链接  http://www.pgpi.org/doc/pgpintro 但是原文网址已经无法访问了，可以通过 https://web.archive.org…","frontmatter":{"description":"当凯撒大帝要给自己的将军们传递信息的时候， 他并不相信自己的信使。所以他就把信中所有的字母都向后移动 3 位， A 替换成了 D，B 替换成了 E， 以此类推。 只有知道字母需要“偏移 3 位”这个规则的人，才能解密他的信息。","date":"July 29, 2020","title":"PGP 是怎么工作的"},"id":"baff63af-4d3d-5c6f-8760-4e9e8f90a599","fields":{"slug":"/PGP-是怎么工作的/"}},{"excerpt":"作者：MongoDB 首席技术支持工程师 William Zola 这将是我们在 MongoDB…","frontmatter":{"description":"设计 MongoDB Schema 的 6 条经验准则第三部分。","date":"July 22, 2020","title":"设计 MongoDB Schema 的 6 条经验准则：Part 3"},"id":"73249544-4977-52be-b922-a340f153d049","fields":{"slug":"/设计-MongoDB-Schema-的-6-条经验准则-Part-3/"}},{"excerpt":"\n作者：MongoDB 首席技术支持工程师 William Zola 这是我们 在 MongoDB 中建立“一对多”关系 的第二站。在上一部分中，我们介绍了三种基本的 Schema…","frontmatter":{"description":"设计 MongoDB Schema 的 6 条经验准则第二部分。","date":"July 18, 2020","title":"设计 MongoDB Schema 的 6 条经验准则：Part 2"},"id":"be020527-a9d6-52c1-9537-a5b16a86c854","fields":{"slug":"/设计-MongoDB-Schema-的-6-条经验准则-Part-2/"}},{"excerpt":"\n作者：MongoDB 首席技术支持工程师 William Zola “我用SQL很长时间了, 但是 MongoDB 对我而言算是一个新东西。在 MongoDB 里面我该怎么处理 一对多 的关系呢？”这是我在 MongoDB…","frontmatter":{"description":"MongoDB 是一款非常不错的 NoSQL 数据库，但是大部分用惯的了 SQL 的程序员在使用 MongoDB 的时候，都是带着 SQL 的思维方式在使用 MongoDB，这样使用其实并不能发挥 MongoDB 的自身优势，而且在网络上关于如何使用 MongoDB 的文章大部分都只是讲 CRUD 操作，关于如何进行 Schema 设计的文章少之又少。本文将解决你在设计 MongoDB Schema 时的疑惑。","date":"July 17, 2020","title":"设计 MongoDB Schema 的 6 条经验准则：Part 1"},"id":"456cf0c1-d796-5d93-aa40-ae4ec3833bbe","fields":{"slug":"/设计-MongoDB-Schema-的-6-条经验准则-Part-1/"}},{"excerpt":"今天尝试给自己的树莓派 3B+ 装了 ArchLinux，但是装好之后 pacman 安装软件各种慢，发现是软件源的问题，就尝试网上找了一些相应的国内软件源，配置好之后，又各种报错404。  树莓派安装的是 Arm 版的 ArchLinux， 所以软件源也应该找相应 Arm…","frontmatter":{"description":null,"date":"March 23, 2020","title":"ArchLinux Arm 可用的国内软件源"},"id":"5d1ff884-1e2c-53a0-8422-83f38340ee04","fields":{"slug":"/ArchLinux可用的国内软件源/"}},{"excerpt":"OpenWrt 概述 这东西到底能干啥？我为什么要费这么大劲刷这个玩意儿？ 大白话，这东西是一个路由器固件（可以理解为操作系统），可以给你提供一个可定制化的路由器，你可以做DDNS、NAS、DLNA、FTP、Aria2、Global Ladder…","frontmatter":{"description":"最近这几天连着好几个晚上一直在折腾OpenWrt，好累，这里把方法，和遇到的坑，都记录一下。","date":"March 17, 2020","title":"树莓派刷OpenWrt-获取固件"},"id":"174af846-9968-50ae-ab38-7a44378f1f03","fields":{"slug":"/斐讯K2刷OpenWrt+树莓派刷OpenWrt-01/"}},{"excerpt":"Hooks 是 React 很出色的一个功能更新。它极大的简化了之前在类组件中必须拆分到各个声明周期中的逻辑。 但是，Hooks…","frontmatter":{"description":"“防抖”和“节流”是我们前端开发中很常用的两个功能，那么如何在 React 中使用节流和防抖并将他们抽象成 React Hooks 呢？这篇文章将为大家揭晓。","date":"December 01, 2019","title":"如何在 React 中使用节流和防抖并将他们抽象成 Hooks"},"id":"d4da1cb8-6128-546e-a815-8eb500da7fcc","fields":{"slug":"/如何在-React-中使用节流和防抖并将他们抽象成-Hooks/"}}]}},"pageContext":{"limit":10,"skip":10,"numPages":5,"currentPage":2}},"staticQueryHashes":["2786614800","2841359383","3828236571"]}