{"componentChunkName":"component---src-templates-posts-tsx","path":"/posts/5","result":{"data":{"site":{"siteMetadata":{"title":"Wizard's Lair"}},"allMdx":{"pageInfo":{"currentPage":5,"hasNextPage":false,"hasPreviousPage":true,"itemCount":8,"pageCount":5,"perPage":10,"totalCount":48},"nodes":[{"excerpt":"JS原生Ajax ajax ：一种请求数据的方式，不需要刷新整个页面。\n ajax 的技术核心是 XMLHttpRequest 对象。\n ajax 请求过程：创建 XMLHttpRequest…","frontmatter":{"description":"本文主要讲述如何是用原生JavaScript实现ajax，jsonp以及DOM加载完成事件！","date":"January 07, 2015","title":"原生JS实现AJAX、JSONP及DOM加载完成事件"},"id":"656d833c-7929-5da4-a6f3-c05942d03c28","fields":{"slug":"/原生JS实现AJAX、JSONP及DOM加载完成事件/"}},{"excerpt":"在JQuery中，对CheckBox的操作分两个阶段，一个是JQuery1.6之前的版本，一个是1.6之后的版本 在1.6之前，我们这么做： 但是细心的同学会发现，在jQuery1.6之后，如果还像上面这么做，那肯定会出问题： \n $('#checkbox').attr…","frontmatter":{"description":null,"date":"September 11, 2014","title":"jQuery中的prop和attr"},"id":"a4d49452-6b06-5be2-b571-ecc579a9ff95","fields":{"slug":"/jQuery中的prop和attr/"}},{"excerpt":"同事昨天入手一个ASUS F450V，预装的Windows8.0，然后硬盘分区只有两个，只有C、D两个盘符，一般人都习惯分好几盘符对日常的应用程序以及文件进行管理，所以他决定重装系统。\n我不出意外的接到了这个光荣而艰巨的使命，本以为就跟往常一样，只要插上硬盘，进入PE…","frontmatter":{"description":null,"date":"April 30, 2014","title":"UEFI BIOS下Windows系统的安装"},"id":"d299a77b-5731-5b69-8e89-de156f887cd3","fields":{"slug":"/UEFI-BIOS下Windows系统的安装/"}},{"excerpt":"有的时候我们会遇到这样的问题： 把类的属性名称配置到配置文件中，然后需要通过这个属性名称获取当前实例的该属性的值。这个该怎怎么做呢？ 首先，我们声明一个 Person 类，设置两个属性 Name ， Age 然后获取一个Person类的实例 然后通过字符串 \"Name…","frontmatter":{"description":null,"date":"April 25, 2014","title":"C#根据属性名称获取属性值"},"id":"dd664781-a9f0-50af-b7c5-f7cf0f40cd0a","fields":{"slug":"/C-根据属性名称获取属性值/"}},{"excerpt":"从去年9月份，不少Ubuntu 13.10用户遇到了屏幕亮度设置异常问题，无法调节亮度级别，尤其使用英特尔的平台。同样该系统BUG在最新开发的Ubuntu 14.04 (Trusty Tahr…","frontmatter":{"description":null,"date":"April 24, 2014","title":"Ubuntu 14.04 亮度BUG解决方案"},"id":"e9d15800-7371-520b-ae5b-6d9925de06eb","fields":{"slug":"/Ubuntu-14-04-亮度BUG解决方案/"}},{"excerpt":"问题发现 最近写WinForm程序的时候遇见一个问题，就是在拖动窗体改变大小的时候，窗体闪烁会非常严重。 网上找的解决方案都是说用 双缓冲 进行处理。 双缓冲 在图形图像处理编程过程中，双缓冲是一种基本的技术，如果窗体在响应OnPaint…","frontmatter":{"description":"最近写WinForm程序的时候遇见一个问题，就是在拖动窗体改变大小的时候，窗体闪烁会非常严重。","date":"April 01, 2014","title":"C#解决WinForm在改变大小时闪烁问题"},"id":"53b9f162-7e0c-5c75-b356-a7fbc0611cac","fields":{"slug":"/C-解决WinForm在改变大小时闪烁问题/"}},{"excerpt":"在MVC中，我们会遇到这样的场景： 每一页中需要都显示地区信息，这些地区信息都是存储在数据库当中的。 为了方便使用，我们将地区信息在模板页中显示，问题来了，怎么在视图母版页面里从数据库检索这些地区信息？ 直接在视图中操作数据库检索数据？ 这样的确很方便，但是这样就违反了MVC…","frontmatter":{"description":"如果在当前页和母版页之间相互传递数据呢？本篇主要讲解如何在母版页内给其他页面传递数据！","date":"March 31, 2014","title":"ASP.NET MVC给母版页传递数据"},"id":"13b676ab-7dab-5878-b5d8-896f9ce74360","fields":{"slug":"/ASP-NET-MVC给母版页传递数据/"}},{"excerpt":"打开wordpress根目录下的wp-config.php文件\n找到如下： 在下面增加如下代码即可： 最后再wp-content文件夹下新建个temp文件夹，更新。","frontmatter":{"description":null,"date":"March 21, 2014","title":"WordPress插件安装时Missing archive file"},"id":"73448a20-8141-5530-ab75-37fea14d84bd","fields":{"slug":"/WordPress插件安装时Missing-archive-file/"}}]}},"pageContext":{"limit":10,"skip":40,"numPages":5,"currentPage":5}},"staticQueryHashes":["2786614800","3000541721","3828236571"]}