{"componentChunkName":"component---src-templates-posts-tsx","path":"/posts/4","result":{"data":{"site":{"siteMetadata":{"title":"Wizard's Lair"}},"allMdx":{"pageInfo":{"currentPage":4,"hasNextPage":true,"hasPreviousPage":true,"itemCount":10,"pageCount":5,"perPage":10,"totalCount":48},"nodes":[{"excerpt":"CentOS终端中文乱码的解决方案 在使用ssh连接CentOS的时候，发现终端中出现中文乱码的问题，记录一下解决方案 问题描述 当ssh连接后，终端中显示如下： 解决方案 编辑 /etc/enviroment 文件，加入语言设置即可 添加如下内容","frontmatter":{"description":"在使用ssh连接CentOS的时候，发现终端中出现中文乱码的问题，记录一下解决方案","date":"April 06, 2017","title":"CentOS终端中文乱码的解决方案"},"id":"b398f6c2-98b2-5a30-a3b8-98243109aefc","fields":{"slug":"/CentOS终端中文乱码的解决方案/"}},{"excerpt":"CentOS7安装Nginx Step One-添加Nginx源 命令行中输入如下命令，添加Nginx源 Step Two-安装Nginx Step Three-启动Nginx Step Four-配置防火墙规则 如果使用的是防火墙 如果是用的是iptables则手动添加端口规则","frontmatter":{"description":"CentOS7安装Nginx","date":"December 22, 2016","title":"CentOS7安装Nginx"},"id":"e62a0070-864a-549e-be1a-1e929eb754ee","fields":{"slug":"/CentOS7安装Nginx/"}},{"excerpt":"第一种方式 yum自带源中没有Node.js,所以首先要获取Node.js资源： 获取完成后，执行如下代码 安装完成之后使用如下指令测试安装是否成功 第二种方式 使用已经编译好的源码 去Node.js官方网站直接下载即可 由于是.xz格式的文件，需要用如下命令将其转换为tar…","frontmatter":{"description":"今天尝试着在CentOS7下安装Node.js，本想省事儿，直接使用了yum安装，但是后来发现使用yum安装的Node.js版本太低了，所以经历了一番波折。记录一下。","date":"November 22, 2016","title":"CentOS安装Node.js"},"id":"cff6fdce-627c-5f5d-bec4-667897c94a62","fields":{"slug":"/CentOS安装Node-js/"}},{"excerpt":"…","frontmatter":{"description":"深拷贝和浅拷贝在很多语言中都会涉及到，在JavaScript当中，没有现成的可以直接实现深拷贝的方法，虽然我们可以使用jQuery当中提供的`extend`方法，但是这个方法有一定的局限性，所以本文主要研究JavaScript当中深拷贝的实现。","date":"October 08, 2016","title":"JavaScript深拷贝实现"},"id":"c466087b-c3c9-560f-97b9-5d6e193772ce","fields":{"slug":"/JavaScript深拷贝实现/"}},{"excerpt":"架设VPN服务器真不是件容易的事儿，之前尝试了 OpenVPN ，满心欢喜的搭建好之后发现被墙了，那个失落感。。。后来又不断的爬帖子，找到了使用 Obfsproxy 混淆 OpenVPN 的招，但是经过尝试之后，还是不行。 之前咨询VPS…","frontmatter":{"description":"之前使用OpenVPN失败，之后又尝试了OpenVPN+Obfs，还是失败，这次我们来试试ShadowSocks!!!","date":"September 29, 2016","title":"CentOS 7 Shadowsocks 安装"},"id":"643b1fd3-f3ac-596b-b20b-983c9ee4608f","fields":{"slug":"/CentOS-7-Shadowsocks-安装/"}},{"excerpt":"由于GFW如神一般的存在，使用局域网的我们不得不尝试去做一些事情，让自己接触外面的世界。\n外面的世界很精彩，里面的世界很无奈。 由于前几天把所有东西从香港VPS搬到了Tokyo VPS，之前在windows下架设的VPN也就不能再用了。 这次架设VPN是在CentOS…","frontmatter":{"description":"本文主要讲述如何在Linux中架设OpenVPN服务器","date":"September 20, 2016","title":"VPS架设OpenVPN服务器"},"id":"5f8f2a4d-00fb-524f-8ad6-5fd45a518838","fields":{"slug":"/VPS架设OpenVPN服务器/"}},{"excerpt":"JavaScript是解释型的语言，但是他并不是真的在运行的时候逐句的往下解析执行。 我们来看下面这个例子： 在上面这段代码中，函数func的调用是在其声明之前，如果说JavaScript…","frontmatter":{"description":"本文主要记录JavaScript中的预解析机制，以及在预解析机制中，需要注意的一些问题。","date":"September 19, 2016","title":"JavaScript预解析"},"id":"e1b4bd21-177e-5cc9-aacd-c060c907be27","fields":{"slug":"/JavaScript预解析/"}},{"excerpt":"CentOS7使用的防火墙默认为firewalle,本篇文章主要讲述如何在CentOS7中安装和使用iptables防火墙。 安装iptable iptable-service 禁用/停止自带的firewalld服务 设置现有规则 其他规则设定 保存规则设定 开启iptables…","frontmatter":{"description":"CentOS7使用的防火墙默认为firewalle,本篇文章主要讲述如何在CentOS7中安装和使用iptables防火墙。","date":"September 18, 2016","title":"CentOS7 iptables配置"},"id":"26fbcea6-e488-56de-9712-79ee64904c1f","fields":{"slug":"/CentOS7-iptables配置/"}},{"excerpt":"Block机制详解 我们知道在 Block 使用中， Block 内部能够读取外部局部变量的值。但我们需要改变这个变量的值时，我们需要给它附加上 __block 修饰符。 __block 另外一个比较多的使用场景是，为了避免某些情况下Block…","frontmatter":{"description":"我们知道在Block使用中，Block内部能够读取外部局部变量的值。但我们需要改变这个变量的值时，我们需要给它附加上`__block`修饰符。","date":"April 06, 2015","title":"Block机制详解"},"id":"124515d3-74e0-5195-a3ae-81f24c8e8cfd","fields":{"slug":"/Block机制详解/"}},{"excerpt":"在开发中经常会遇到需要进行URLEnCode和URLDeCode的状况，在类似于PHP、.NET、Python的一些web开发语言中对URL En/DeCode都有很好的实现。\nJavaScript中也可以通过 encodeURI, encodeURIComponent…","frontmatter":{"description":"在开发中经常会遇到需要进行URLEnCode和URLDeCode的状况，在类似于PHP、.NET、Python的一些web开发语言中对URL En/DeCode都有很好的实现。JavaScript中也可以通过 encodeURI, encodeURIComponent 实现UTF-8编码的 URL En/DeCode。","date":"January 08, 2015","title":"JavaScript URL ANSI编码EnCode DeCode实现"},"id":"193848aa-9b78-569d-93d3-588444491442","fields":{"slug":"/JavaScript-URL-ANSI编码EnCode-DeCode实现/"}}]}},"pageContext":{"limit":10,"skip":30,"numPages":5,"currentPage":4}},"staticQueryHashes":["2786614800","2841359383","3828236571"]}